gapminder-wrangle
…
filter(gapminder,country %in% c("Mexico","Peru"))

## # A tibble: 24 x 6
##    country  year      pop continent lifeExp gdpPercap
##    <chr>   <dbl>    <dbl> <chr>       <dbl>     <dbl>
##  1 Mexico   1952 30144317 Americas     50.8     3478.
##  2 Mexico   1957 35015548 Americas     55.2     4132.
##  3 Mexico   1962 41121485 Americas     58.3     4582.
##  4 Mexico   1967 47995559 Americas     60.1     5755.
##  5 Mexico   1972 55984294 Americas     62.4     6809.
##  6 Mexico   1977 63759976 Americas     65.0     7675.
##  7 Mexico   1982 71640904 Americas     67.4     9611.
##  8 Mexico   1987 80122492 Americas     69.5     8688.
##  9 Mexico   1992 88111030 Americas     71.5     9472.
## 10 Mexico   1997 95895146 Americas     73.7     9767.
## # ... with 14 more rows
…
## # A tibble: 1 x 6
##   country  year       pop continent lifeExp gdpPercap
##   <chr>   <dbl>     <dbl> <chr>       <dbl>     <dbl>
## 1 Mexico   2002 102479927 Americas     74.9    10742.

mean(filter(gapminder,country=="Brazil",year>=1987,year<=2007)$lifeExp)

## [1] 69.0092

select():select multiple columns.（这个函数会有冲突，所以用dplyr::select()）。可以用“-”来删去columns

dplyr::select(gapminder,year,country,lifeExp)

## # A tibble: 1,704 x 3
##     year country     lifeExp
##    <dbl> <chr>         <dbl>
##  1  1952 Afghanistan    28.8
##  2  1957 Afghanistan    30.3
##  3  1962 Afghanistan    32.0
##  4  1967 Afghanistan    34.0
##  5  1972 Afghanistan    36.1
##  6  1977 Afghanistan    38.4
##  7  1982 Afghanistan    39.9
##  8  1987 Afghanistan    40.8
##  9  1992 Afghanistan    41.7
## 10  1997 Afghanistan    41.8
## # ... with 1,694 more rows

dplyr::select(gapminder,-continent,-lifeExp)

## # A tibble: 1,704 x 4
##    country      year      pop gdpPercap
##    <chr>       <dbl>    <dbl>     <dbl>
##  1 Afghanistan  1952  8425333      779.
##  2 Afghanistan  1957  9240934      821.
##  3 Afghanistan  1962 10267083      853.
##  4 Afghanistan  1967 11537966      836.
##  5 Afghanistan  1972 13079460      740.
##  6 Afghanistan  1977 14880372      786.
##  7 Afghanistan  1982 12881816      978.
##  8 Afghanistan  1987 13867957      852.
##  9 Afghanistan  1992 16317921      649.
## 10 Afghanistan  1997 22227415      635.
## # ... with 1,694 more rows
…
mutate():添加新的列。 function in mutate: + , - , * , / , %/% , %% , log() , log2() ,log10() , lead() , lag()….

gapminder %>% mutate(gdp = pop*gdpPercap)

## # A tibble: 1,704 x 7
##    country      year      pop continent lifeExp gdpPercap          gdp
##    <chr>       <dbl>    <dbl> <chr>       <dbl>     <dbl>        <dbl>
##  1 Afghanistan  1952  8425333 Asia         28.8      779.  6567086330.
##  2 Afghanistan  1957  9240934 Asia         30.3      821.  7585448670.
##  3 Afghanistan  1962 10267083 Asia         32.0      853.  8758855797.
##  4 Afghanistan  1967 11537966 Asia         34.0      836.  9648014150.
##  5 Afghanistan  1972 13079460 Asia         36.1      740.  9678553274.
##  6 Afghanistan  1977 14880372 Asia         38.4      786. 11697659231.
##  7 Afghanistan  1982 12881816 Asia         39.9      978. 12598563401.
##  8 Afghanistan  1987 13867957 Asia         40.8      852. 11820990309.
##  9 Afghanistan  1992 16317921 Asia         41.7      649. 10595901589.
## 10 Afghanistan  1997 22227415 Asia         41.8      635. 14121995875.
## # ... with 1,694 more rows

gapminder %>% filter(continent=="Asia",year==2007) %>% mutate(pop1000 = pop/1000)

## # A tibble: 33 x 7
##    country          year        pop continent lifeExp gdpPercap  pop1000
##    <chr>           <dbl>      <dbl> <chr>       <dbl>     <dbl>    <dbl>
##  1 Afghanistan      2007   31889923 Asia         43.8      975.   31890.
##  2 Bahrain          2007     708573 Asia         75.6    29796.     709.
##  3 Bangladesh       2007  150448339 Asia         64.1     1391.  150448.
##  4 Cambodia         2007   14131858 Asia         59.7     1714.   14132.
##  5 China            2007 1318683096 Asia         73.0     4959. 1318683.
##  6 Hong Kong China  2007    6980412 Asia         82.2    39725.    6980.
##  7 India            2007 1110396331 Asia         64.7     2452. 1110396.
##  8 Indonesia        2007  223547000 Asia         70.6     3541.  223547 
##  9 Iran             2007   69453570 Asia         71.0    11606.   69454.
## 10 Iraq             2007   27499638 Asia         59.5     4471.   27500.
## # ... with 23 more rows

group_by():分组

gapminder %>% filter(year==2002) %>% group_by(continent) %>% mutate(cont_pop=sum(pop))

## # A tibble: 142 x 7
## # Groups:   continent [5]
##    country      year       pop continent lifeExp gdpPercap   cont_pop
##    <chr>       <dbl>     <dbl> <chr>       <dbl>     <dbl>      <dbl>
##  1 Afghanistan  2002  25268405 Asia         42.1      727. 3601802203
##  2 Albania      2002   3508512 Europe       75.7     4604.  578223869
##  3 Algeria      2002  31287142 Africa       71.0     5288.  833723916
##  4 Angola       2002  10866106 Africa       41.0     2773.  833723916
##  5 Argentina    2002  38331121 Americas     74.3     8798.  849772762
##  6 Australia    2002  19546792 Oceania      80.4    30688.   23454829
##  7 Austria      2002   8148312 Europe       79.0    32418.  578223869
##  8 Bahrain      2002    656397 Asia         74.8    23404. 3601802203
##  9 Bangladesh   2002 135656790 Asia         62.0     1136. 3601802203
## 10 Belgium      2002  10311970 Europe       78.3    30486.  578223869
## # ... with 132 more rows
…
arrange():排序,arrange(desc())是倒叙

gap1 %>%arrange(year)

## # A tibble: 60 x 3
## # Groups:   continent [5]
##    continent  year    cont_pop
##    <chr>     <dbl>       <dbl>
##  1 Africa     1952  237640501 
##  2 Americas   1952  345152446 
##  3 Asia       1952 1395357352.
##  4 Europe     1952  418120846 
##  5 Oceania    1952   10686006 
##  6 Africa     1957  264837738 
##  7 Americas   1957  386953916 
##  8 Asia       1957 1562780599 
##  9 Europe     1957  437890351 
## 10 Oceania    1957   11941976 
## # ... with 50 more rows
…
